index
…
–>  –>

Design element: data

Consider trips to Australia 🇦🇺 🦘

tourism <- read_csv("https://slides.mitchelloharawild.com/nyr2023/tourism.csv")
tourism

# A tibble: 320 x 3
   Purpose  Quarter    Trips
   <chr>    <date>     <dbl>
 1 Business 1998-01-01 3599.
 2 Business 1998-04-01 3724.
 3 Business 1998-07-01 4356.
 4 Business 1998-10-01 3796.
 5 Business 1999-01-01 3335.
 6 Business 1999-04-01 4714.
 7 Business 1999-07-01 4190.
 8 Business 1999-10-01 3701.
 9 Business 2000-01-01 3562.
10 Business 2000-04-01 4018.
# i 310 more rows
…
Design element: data

library(tsibble)
tourism_tsbl <- tourism |> 
  mutate(Quarter = yearquarter(Quarter)) |> 
  as_tsibble(
    index = Quarter,
    key = Purpose
  )
tourism_tsbl

# A tsibble: 320 x 3 [1Q]
# Key:       Purpose [4]
   Purpose  Quarter Trips
   <chr>      <qtr> <dbl>
 1 Business 1998 Q1 3599.
 2 Business 1998 Q2 3724.
 3 Business 1998 Q3 4356.
 4 Business 1998 Q4 3796.
 5 Business 1999 Q1 3335.
 6 Business 1999 Q2 4714.
 7 Business 1999 Q3 4190.
 8 Business 1999 Q4 3701.
 9 Business 2000 Q1 3562.
10 Business 2000 Q2 4018.
# i 310 more rows
…
Design element: data

library(tsibble)
tourism_tsbl <- tourism |> 
  mutate(Quarter = yearquarter(Quarter)) |> 
  as_tsibble(
    index = Quarter,
    key = Purpose
  )
tourism_tsbl |> 
  filter(Quarter >= yearquarter("2012 Q2"))

# A tsibble: 92 x 3 [1Q]
# Key:       Purpose [4]
   Purpose  Quarter Trips
   <chr>      <qtr> <dbl>
 1 Business 2012 Q2 3746.
 2 Business 2012 Q3 4091.
 3 Business 2012 Q4 3825.
 4 Business 2013 Q1 3099.
 5 Business 2013 Q2 4036.
 6 Business 2013 Q3 4096.
 7 Business 2013 Q4 3704.
 8 Business 2014 Q1 3917.
 9 Business 2014 Q2 4505.
10 Business 2014 Q3 4726.
# i 82 more rows
…
Design element: forecasts

fc <- tourism_tsbl |> 
  model(
    ets = ETS(log(Trips + 1) ~ error("A") + trend("A") + season("A"))
  ) |> 
  forecast()
fc

# A fable: 32 x 5 [1Q]
# Key:     Purpose, .model [4]
   Purpose  .model Quarter             Trips  .mean
   <chr>    <chr>    <qtr>            <dist>  <dbl>
 1 Business ets    2018 Q1 t(N(8.5, 0.0054))  4855.
 2 Business ets    2018 Q2 t(N(8.7, 0.0064))  5920.
 3 Business ets    2018 Q3 t(N(8.8, 0.0075))  6440.
 4 Business ets    2018 Q4 t(N(8.7, 0.0087))  6057.
 5 Business ets    2019 Q1   t(N(8.5, 0.01))  5169.
 6 Business ets    2019 Q2  t(N(8.7, 0.012))  6305.
 7 Business ets    2019 Q3  t(N(8.8, 0.013))  6861.
 8 Business ets    2019 Q4  t(N(8.8, 0.015))  6455.
 9 Holiday  ets    2018 Q1 t(N(9.5, 0.0021)) 13413.
10 Holiday  ets    2018 Q2 t(N(9.3, 0.0024)) 11304.
# i 22 more rows
…
Design element: forecasts

fc |> 
  select(-.model) |> 
  mutate(
    .mean = mean(Trips),
    .median = median(Trips),
    .int95 = hilo(Trips, 95)
  )

# A fable: 32 x 6 [1Q]
# Key:     Purpose [4]
   Purpose  Quarter             Trips  .mean .median                   .int95
   <chr>      <qtr>            <dist>  <dbl>   <dbl>                   <hilo>
 1 Business 2018 Q1 t(N(8.5, 0.0054))  4855.   4842. [ 4190.526,  5594.409]95
 2 Business 2018 Q2 t(N(8.7, 0.0064))  5920.   5901. [ 5045.407,  6900.993]95
 3 Business 2018 Q3 t(N(8.8, 0.0075))  6440.   6416. [ 5416.630,  7599.586]95
 4 Business 2018 Q4 t(N(8.7, 0.0087))  6057.   6031. [ 5024.229,  7238.677]95
 5 Business 2019 Q1   t(N(8.5, 0.01))  5169.   5144. [ 4226.427,  6259.683]95
 6 Business 2019 Q2  t(N(8.7, 0.012))  6305.   6268. [ 5077.670,  7738.282]95
 7 Business 2019 Q3  t(N(8.8, 0.013))  6861.   6816. [ 5440.190,  8538.972]95
 8 Business 2019 Q4  t(N(8.8, 0.015))  6455.   6406. [ 5036.361,  8149.156]95
 9 Holiday  2018 Q1 t(N(9.5, 0.0021)) 13413.  13398. [12245.339, 14660.128]95
10 Holiday  2018 Q2 t(N(9.3, 0.0024)) 11304.  11290. [10248.820, 12436.944]95
# i 22 more rows
…
